2 1 5 9 3 5 7 3 9 9 6 8 3
6 4 7 6 4 8 8 7 9 8 2 4 5
9 8 8 2 2 3 1 9 2 6 2 3 7
9 8 5 9 5 5 7 1 2 8 7 8 2
3 3 6 1 3 6 4 4 2 8 7 2 1
6 2 9 7 6 2 5 2 7 2 5 7 8
8 5 3 1 4 4 3 2 4 6 9 7 8
1 9 5 1 7 8 1 5 2 6 9 4 2
9 9 1 2 2 9 1 6 2 3 9 5 6
3 3 4 4 3 4 8 7 4 6 5 9 9
9 1 7 4 6 9 1 5 5 3 2 9 2
6 1 6 4 5 2 8 8 9 8 6 3 6
1 6 9 7 7 9 6 1 1 5 4 4 5