7 6 3 9 5 2 9 8 4 8 9 3 4
4 3 4 9 7 6 7 4 5 4 6 1 6
7 9 5 8 5 2 8 2 5 9 2 8 5
8 8 7 9 4 4 6 4 6 4 8 6 6
2 8 9 6 7 3 2 5 8 7 6 6 9
7 9 4 4 5 1 6 7 1 2 1 8 8
8 1 9 9 6 5 2 4 5 6 3 2 3
1 4 2 9 1 9 5 4 4 8 3 5 6
3 2 2 8 4 2 2 8 1 8 4 2 7
4 6 3 2 3 7 5 5 1 2 2 4 6
5 4 3 9 2 9 5 4 1 9 6 6 5
3 7 9 3 3 4 5 6 5 7 8 8 9
8 3 3 3 2 7 3 1 9 9 9 5 4